{
  "name": "Quick Web Search",
  "description": "Use Super key for quick web search",
  "uuid": "quick@web.search",
  "shell-version": [
    "45", "46", "47"
  ],
  "url": "https://gitlab.com/chet-buddy/quick-web-search",
  "settings-schema": "org.gnome.shell.extensions.quickwebsearch"
}
